<?xml version="1.0" encoding="utf-8"?>
<!-- Generator: Adobe Illustrator 19.1.0, SVG Export Plug-In . SVG Version: 6.00 Build 0)  -->
<svg version="1.1" id="Layer_1" xmlns="http://www.w3.org/2000/svg" xmlns:xlink="http://www.w3.org/1999/xlink" x="0px" y="0px"
	 viewBox="-290 382 30 30" style="enable-background:new -290 382 30 30;" xml:space="preserve">
<g id="delete-2">
	<path class='accent-darkest-icon'  d="M-275,382c-8.3,0-15,6.7-15,15s6.7,15,15,15s15-6.7,15-15S-266.7,382-275,382z M-275,409c-6.6,0-12-5.4-12-12s5.4-12,12-12
		s12,5.4,12,12S-268.4,409-275,409z"/>
</g>
<g id="Layer_1_1_">
</g>
<g class='accent-darkest-icon'  id="dollar">
	<path d="M-269.8,399.9c0-2.1-1.1-3.4-4-4.4c-2-0.8-2.9-1.3-2.9-2c0-0.7,0.5-1.3,2-1.3c0.9,0,1.7,0.2,2.2,0.3
		c0.3,0.1,0.7,0.1,0.9-0.1c0.3-0.2,0.5-0.4,0.6-0.7l0,0c0.1-0.4,0-0.8-0.2-1.2c-0.2-0.3-0.5-0.6-0.9-0.7c-0.5-0.1-1.2-0.2-1.9-0.3
		V388c0-0.4-0.3-0.6-0.6-0.6h-1.3c-0.4,0-0.6,0.3-0.6,0.6v1.6c-2.5,0.5-3.9,2.1-3.9,4.2c0,2.3,1.7,3.5,4.3,4.3
		c1.8,0.6,2.5,1.2,2.5,2.1c0,1-0.9,1.5-2.3,1.5c-1,0-1.9-0.2-2.7-0.5c-0.3-0.1-0.7-0.1-1,0.1c-0.3,0.2-0.5,0.5-0.6,0.8l0,0
		c-0.2,0.8,0.3,1.7,1.1,1.9c0.8,0.2,1.7,0.4,2.6,0.4v1.6c0,0.4,0.3,0.6,0.6,0.6h1.3c0.4,0,0.6-0.3,0.6-0.6v-1.8
		C-271.2,403.7-269.8,401.9-269.8,399.9z"/>
</g>
</svg>
